{
  "pagination": {
    "sortDirection": "ASC",
    "totalPages": 10,
    "pageSize": 25,
    "currentPage": 1,
    "totalElements": 244
  },
  "data": [
    {
      "author": "New ",
      "country": null,
      "language": null,
      "link": null,
      "pages": null,
      "title": "harry potter",
      "year": null,
      "id": 20
    },
    {
      "author": null,
      "country": null,
      "language": null,
      "link": null,
      "pages": null,
      "title": "abc111",
      "year": null,
      "id": 22
    },
    {
      "author": null,
      "country": null,
      "language": null,
      "link": null,
      "pages": null,
      "title": "html",
      "year": null,
      "id": 23
    },
    {
      "author": null,
      "country": null,
      "language": null,
      "link": null,
      "pages": null,
      "title": "hii",
      "year": null,
      "id": 25
    },
    {
      "author": null,
      "country": null,
      "language": null,
      "link": null,
      "pages": null,
      "title": null,
      "year": null,
      "id": 31
    },
    {
      "author": null,
      "country": null,
      "language": null,
      "link": null,
      "pages": null,
      "title": null,
      "year": null,
      "id": 32
    },
    {
      "author": null,
      "country": null,
      "language": null,
      "link": null,
      "pages": null,
      "title": null,
      "year": null,
      "id": 33
    },
    {
      "author": null,
      "country": null,
      "language": null,
      "link": null,
      "pages": null,
      "title": null,
      "year": null,
      "id": 34
    },
    {
      "author": null,
      "country": null,
      "language": null,
      "link": null,
      "pages": null,
      "title": null,
      "year": null,
      "id": 35
    },
    {
      "author": null,
      "country": null,
      "language": null,
      "link": null,
      "pages": null,
      "title": null,
      "year": null,
      "id": 36
    },
    {
      "author": null,
      "country": null,
      "language": null,
      "link": null,
      "pages": null,
      "title": null,
      "year": null,
      "id": 37
    },
    {
      "author": null,
      "country": null,
      "language": null,
      "link": null,
      "pages": null,
      "title": null,
      "year": null,
      "id": 38
    },
    {
      "author": null,
      "country": null,
      "language": null,
      "link": null,
      "pages": null,
      "title": null,
      "year": null,
      "id": 39
    },
    {
      "author": null,
      "country": null,
      "language": null,
      "link": null,
      "pages": null,
      "title": null,
      "year": null,
      "id": 40
    },
    {
      "author": null,
      "country": null,
      "language": null,
      "link": null,
      "pages": null,
      "title": null,
      "year": null,
      "id": 41
    },
    {
      "author": null,
      "country": null,
      "language": null,
      "link": null,
      "pages": null,
      "title": null,
      "year": null,
      "id": 42
    },
    {
      "author": null,
      "country": null,
      "language": null,
      "link": null,
      "pages": null,
      "title": null,
      "year": null,
      "id": 43
    },
    {
      "author": null,
      "country": null,
      "language": null,
      "link": null,
      "pages": null,
      "title": null,
      "year": null,
      "id": 44
    },
    {
      "author": null,
      "country": null,
      "language": null,
      "link": null,
      "pages": null,
      "title": null,
      "year": null,
      "id": 46
    },
    {
      "author": null,
      "country": null,
      "language": null,
      "link": null,
      "pages": null,
      "title": null,
      "year": null,
      "id": 47
    },
    {
      "author": null,
      "country": null,
      "language": null,
      "link": null,
      "pages": null,
      "title": null,
      "year": null,
      "id": 48
    },
    {
      "author": null,
      "country": null,
      "language": null,
      "link": null,
      "pages": null,
      "title": null,
      "year": null,
      "id": 49
    },
    {
      "author": null,
      "country": null,
      "language": null,
      "link": null,
      "pages": null,
      "title": null,
      "year": null,
      "id": 50
    },
    {
      "author": null,
      "country": null,
      "language": null,
      "link": null,
      "pages": null,
      "title": null,
      "year": null,
      "id": 51
    },
    {
      "author": null,
      "country": null,
      "language": null,
      "link": null,
      "pages": null,
      "title": null,
      "year": null,
      "id": 52
    }
  ]
}
